Lecture_06
…
## [1] 363

nrow(distinct(penguins_dup))

## [1] 333

# Duplicates can mess up summary statistics and plots by overrepresenting data and inflating sample size, in addition to altering mean values. 

#Q3

# How many columns are in the resulting data frame? Answer: 8
penguins_clean %>%
  select(species, island, sex, where(is.numeric))

## # A tibble: 333 × 8
##    species island    sex    bill_length_mm bill_depth_mm flipper_length_mm
##    <fct>   <fct>     <fct>           <dbl>         <dbl>             <int>
##  1 Adelie  Torgersen male             39.1          18.7               181
##  2 Adelie  Torgersen female           39.5          17.4               186
##  3 Adelie  Torgersen female           40.3          18                 195
##  4 Adelie  Torgersen female           36.7          19.3               193
##  5 Adelie  Torgersen male             39.3          20.6               190
##  6 Adelie  Torgersen female           38.9          17.8               181
##  7 Adelie  Torgersen male             39.2          19.6               195
##  8 Adelie  Torgersen female           41.1          17.6               182
##  9 Adelie  Torgersen male             38.6          21.2               191
## 10 Adelie  Torgersen male             34.6          21.1               198
## # ℹ 323 more rows
## # ℹ 2 more variables: body_mass_g <int>, year <int>

ncol(penguins_clean)

## [1] 8

#Q4

penguins_clean %>%
  select(starts_with("bill")) %>%
  select(ends_with("_mm")) %>%
  select(matches("bill|flipper"))

## # A tibble: 333 × 2
##    bill_length_mm bill_depth_mm
##             <dbl>         <dbl>
##  1           39.1          18.7
##  2           39.5          17.4
##  3           40.3          18  
##  4           36.7          19.3
##  5           39.3          20.6
##  6           38.9          17.8
##  7           39.2          19.6
##  8           41.1          17.6
##  9           38.6          21.2
## 10           34.6          21.1
## # ℹ 323 more rows
…
#Q6

penguins_clean %>%
  mutate(bill_length = 
  case_when(
    bill_length_mm < 40 ~ "short",
    bill_length_mm < 50 ~ "medium",
    bill_length_mm >= 50 ~ "long")         
  ) %>%
  select(bill_length_mm, bill_length)

## # A tibble: 333 × 2
##    bill_length_mm bill_length
##             <dbl> <chr>      
##  1           39.1 short      
##  2           39.5 short      
##  3           40.3 medium     
##  4           36.7 short      
##  5           39.3 short      
##  6           38.9 short      
##  7           39.2 short      
##  8           41.1 medium     
##  9           38.6 short      
## 10           34.6 short      
## # ℹ 323 more rows
…
